<svg xmlns="http://www.w3.org/2000/svg" width="92" height="20">
  <linearGradient id="b" x2="0" y2="100%">
    <stop offset="0" stop-color="#bbb" stop-opacity=".1"/>
    <stop offset="1" stop-opacity=".1"/>
  </linearGradient>

  <mask id="a">
    <rect width="92" height="20" rx="3" fill="#fff"/>
  </mask>

  <g mask="url(#a)">
    <path fill="#555"
          d="M0 0 h38 v20 H0 z"/>
    <path fill="#dfb317"
          d="M38 0 h54 v20 H38 z"/>
    <path fill="url(#b)"
          d="M0 0 h92 v20 H0 z"/>
  </g>

  <g fill="#fff" text-anchor="middle">
    <g font-family="DejaVu Sans,Verdana,Geneva,sans-serif" font-size="11">
      <text x="19" y="15" fill="#010101" fill-opacity=".3">
        build
      </text>
      <text x="19" y="14">
        build
      </text>
      <text x="65" y="15" fill="#010101" fill-opacity=".3">
        running
      </text>
      <text x="65" y="14">
        running
      </text>
    </g>
  </g>
</svg>
